com/sandeep/web/controller/AdminController.class
com/sandeep/web/controller/QueryController.class
com/sandeep/web/entity/User.class
com/sandeep/web/dao/QueryDao.class
com/sandeep/web/dao/UserDao.class
com/sandeep/web/controller/UserController.class
com/sandeep/web/entity/Query.class
com/sandeep/web/controller/LoginController.class
